{
	"name": "Default bindings for ValveIndex",
	"controller_type": "knuckles",
	"last_edited_by": "UnrealEngine",
	"bindings":
	{
		"/actions/main":
		{
			"sources": [
				{
					"mode": "button",
					"path": "/user/hand/right/input/a",
					"inputs":
					{
						"click":
						{
							"output": "/actions/main/in/TeleportRight"
						}
					}
				},
				{
					"mode": "dpad",
					"path": "/user/hand/right/input/thumbstick",
					"parameters":
					{
						"sub_mode": "touch"
					},
					"inputs":
					{
						"north":
						{
							"output": "/actions/main/in/TeleportRight"
						},
						"south":
						{
							"output": "/actions/main/in/TeleportRight"
						}
					}
				},
				{
					"mode": "dpad",
					"path": "/user/hand/right/input/thumbstick",
					"parameters":
					{
						"sub_mode": "touch"
					},
					"inputs":
					{
						"west":
						{
							"output": "/actions/main/in/TeleportRight"
						},
						"east":
						{
							"output": "/actions/main/in/TeleportRight"
						}
					}
				},
				{
					"mode": "button",
					"path": "/user/hand/left/input/a",
					"inputs":
					{
						"click":
						{
							"output": "/actions/main/in/TeleportLeft"
						}
					}
				},
				{
					"mode": "dpad",
					"path": "/user/hand/left/input/thumbstick",
					"parameters":
					{
						"sub_mode": "touch"
					},
					"inputs":
					{
						"north":
						{
							"output": "/actions/main/in/TeleportLeft"
						},
						"south":
						{
							"output": "/actions/main/in/TeleportLeft"
						}
					}
				},
				{
					"mode": "dpad",
					"path": "/user/hand/left/input/thumbstick",
					"parameters":
					{
						"sub_mode": "touch"
					},
					"inputs":
					{
						"west":
						{
							"output": "/actions/main/in/TeleportLeft"
						},
						"east":
						{
							"output": "/actions/main/in/TeleportLeft"
						}
					}
				},
				{
					"mode": "trigger",
					"path": "/user/hand/left/input/trigger",
					"inputs":
					{
						"click":
						{
							"output": "/actions/main/in/Menu Interact Left"
						}
					}
				},
				{
					"mode": "trigger",
					"path": "/user/hand/right/input/trigger",
					"inputs":
					{
						"click":
						{
							"output": "/actions/main/in/Menu Interact Right"
						}
					}
				},
				{
					"mode": "button",
					"path": "/user/hand/right/input/b",
					"inputs":
					{
						"click":
						{
							"output": "/actions/main/in/Debug Slot Increment"
						}
					}
				},
				{
					"mode": "joystick",
					"path": "/user/hand/left/input/thumbstick",
					"inputs":
					{
						"position":
						{
							"output": "/actions/main/in/MotionControllerThumbLeft_X,MotionControllerThumbLeft_Y X Y_axis2d"
						}
					}
				},
				{
					"mode": "joystick",
					"path": "/user/hand/right/input/thumbstick",
					"inputs":
					{
						"position":
						{
							"output": "/actions/main/in/MotionControllerThumbRight_X,MotionControllerThumbRight_Y X Y_axis2d"
						}
					}
				}
			],
			"poses": [
				{
					"output": "/actions/main/in/controllerleft",
					"path": "/user/hand/left/pose/raw",
					"requirement": "optional"
				},
				{
					"output": "/actions/main/in/controllerright",
					"path": "/user/hand/right/pose/raw"
				}
			],
			"skeleton": [
				{
					"output": "/actions/main/in/skeletonleft",
					"path": "/user/hand/left/input/skeleton/left"
				},
				{
					"output": "/actions/main/in/skeletonright",
					"path": "/user/hand/right/input/skeleton/right"
				}
			],
			"haptics": [
				{
					"output": "/actions/main/out/vibrateleft",
					"path": "/user/hand/left/output/haptic"
				},
				{
					"output": "/actions/main/out/vibrateright",
					"path": "/user/hand/right/output/haptic"
				}
			]
		}
	},
	"description": "Virtual Reality BP Game Template-15973114"
}